<?xml version="1.0" encoding="utf-8"?>
<!-- Generator: Adobe Illustrator 21.0.0, SVG Export Plug-In . SVG Version: 6.00 Build 0)  -->
<svg version="1.1" id="Capa_1" xmlns="http://www.w3.org/2000/svg" xmlns:xlink="http://www.w3.org/1999/xlink" x="0px" y="0px"
	 viewBox="0 0 100 100" style="enable-background:new 0 0 100 100;" xml:space="preserve">
<style type="text/css">
	.st0{fill:#574D34;}
</style>
<g>
	<g>
		<path class="st0" d="M70.6,28.5c-2.1-2.1-5.8-2.1-7.9,0l-6.1,6.1v23.5l21.8-21.8L70.6,28.5z M68.7,37C68,37.7,67,38,66,38
			c0.1,1-0.1,2-1,2.7c-1.3,1.3-3.4,1.3-4.7,0s-1.3-3.4,0-4.7c0.7-0.7,1.7-1,2.7-1c-0.1-1,0.1-2,1-2.7c1.3-1.3,3.4-1.3,4.7,0
			C70,33.6,70,35.7,68.7,37z"/>
		<path class="st0" d="M82.1,39.9L56.5,65.5V70c1.6,0.1,3.3-0.4,4.4-1.6l20.8-20.8C83.9,45.5,83.9,42.2,82.1,39.9z"/>
		<path class="st0" d="M53.6,36.7c0-3.3-2.7-5.8-5.8-5.8H22.4c-3.1-0.1-5.8,2.6-5.8,5.8v30.6c0,3.3,2.7,5.8,5.8,5.8h25.4
			c3.3,0,5.8-2.7,5.8-5.8V36.7z M29.5,65.2c0,1.1-0.9,2-2,2h-3.7c-1.1,0-2-0.9-2-2v-3.5c0-1.1,0.9-2,2-2h3.7c1.1,0,2,0.9,2,2
			L29.5,65.2L29.5,65.2z M29.5,56c0,1.1-0.9,2-2,2h-3.7c-1.1,0-2-0.9-2-2v-3.7c0-1.1,0.9-2,2-2h3.7c1.1,0,2,0.9,2,2L29.5,56L29.5,56
			z M39,65.2c0,1.1-0.9,2-2,2h-3.8c-1.1,0-2-0.9-2-2v-3.5c0-1.1,0.9-2,2-2H37c1.1,0,2,0.9,2,2V65.2z M39,56c0,1.1-0.9,2-2,2h-3.8
			c-1.1,0-2-0.9-2-2v-3.7c0-1.1,0.9-2,2-2H37c1.1,0,2,0.9,2,2V56z M48.3,65.2c0,1.1-0.9,2-2,2h-3.7c-1.1,0-2-0.9-2-2v-3.5
			c0-1.1,0.9-2,2-2h3.7c1.1,0,2,0.9,2,2V65.2z M48.3,56c0,1.1-0.9,2-2,2h-3.7c-1.1,0-2-0.9-2-2v-3.7c0-1.1,0.9-2,2-2h3.7
			c1.1,0,2,0.9,2,2V56z M48.3,42.2c0,1.1-0.9,2-2,2H23.6c-1.1,0-2-0.9-2-2v-3.5c0-1.1,0.9-2,2-2h22.7c1.1,0,2,0.9,2,2V42.2z"/>
	</g>
</g>
</svg>
