<?xml version="1.0" encoding="utf-8"?>
<!-- Generator: Adobe Illustrator 21.0.0, SVG Export Plug-In . SVG Version: 6.00 Build 0)  -->
<svg version="1.1" id="Capa_1" xmlns="http://www.w3.org/2000/svg" xmlns:xlink="http://www.w3.org/1999/xlink" x="0px" y="0px"
	 viewBox="0 0 100 100" style="enable-background:new 0 0 100 100;" xml:space="preserve">
<style type="text/css">
	.st0{fill:#574D34;}
</style>
<g>
	<g id="Layer_5_47_">
		<g>
			<path class="st0" d="M76.5,26.3c-1.5,0-2.7,0.8-3.3,2.1c-0.1,0.1-0.2,0.4-0.7,0.4h-17c-0.4,0-0.5-0.2-0.6-0.2
				c-0.9-1-2.3-1.7-3.8-1.7h-0.1L35.6,28c-0.5,0-0.5-0.2-0.5-0.3c-0.8-3.5-3.9-6.1-7.6-6.1c-4.3,0-7.8,3.5-7.8,7.8s3.5,7.8,7.8,7.8
				c0.1,0,49,0,49.1,0c2.1,0,3.7-1.7,3.7-3.7V30C80.3,28,78.6,26.3,76.5,26.3z"/>
			<path class="st0" d="M80.9,41.7H19c-2.2,0-3.9,1.8-3.9,3.9V51c0,2.2,1.8,3.9,3.9,3.9c0,0,15.2,0,20.3,0c0.4,0,0.7,0.2,0.7,0.2
				l6.5,5.9c0,0,0.2,0.3,0,0.5c-2.4,2.2-9.2,8.4-9.2,8.4c-0.4,0.4-0.9,0.3-1.2,0.3c-0.1,0-0.2,0-0.3,0c-2.2,0-4,1.8-4,4s1.8,4,4,4
				c2.2,0,4-1.8,4-4c0-0.2-0.1-0.6,0.3-1l9.6-8.7c0,0,0.3-0.3,0.6,0c2.6,2.4,9.6,8.7,9.6,8.7c0.3,0.3,0.3,0.8,0.3,1c0,2.2,1.8,4,4,4
				c2.2,0,4-1.8,4-4c0-2.2-1.8-4-4-4c-0.4,0-0.9,0.2-1.3-0.1l-9.4-8.6c0,0-0.3-0.2,0-0.5c1.7-1.5,6.4-5.8,6.4-5.8s0.3-0.3,0.8-0.3
				c5,0,20.2,0,20.2,0c2.2,0,3.9-1.8,3.9-3.9v-5.3C84.8,43.5,83,41.7,80.9,41.7z M50,58.2c-0.1,0-0.2-0.1-0.2-0.1l-3.2-2.9
				c0,0-0.2-0.3,0.3-0.3c1.7,0,4.8,0,6.4,0c0.6,0,0.3,0.3,0.3,0.3l-3.2,2.9C50.2,58.1,50.1,58.2,50,58.2z"/>
		</g>
	</g>
</g>
</svg>
