<?xml version="1.0" encoding="utf-8"?>
<!-- Generator: Adobe Illustrator 21.0.0, SVG Export Plug-In . SVG Version: 6.00 Build 0)  -->
<svg version="1.1" id="Capa_1" xmlns="http://www.w3.org/2000/svg" xmlns:xlink="http://www.w3.org/1999/xlink" x="0px" y="0px"
	 viewBox="0 0 100 100" style="enable-background:new 0 0 100 100;" xml:space="preserve">
<style type="text/css">
	.st0{fill:#FCC746;}
</style>
<g>
	<g>
		<path class="st0" d="M82.3,57.7c-2-1.3-3.2-3.2-3.8-4.9c3.3-3.6,5.3-8.2,5.3-13.2c0-11.6-10.7-21-24-21C48,18.5,38.2,26,36.2,35.9
			c1.1-0.1,2.3-0.2,3.5-0.2c14.8,0,26.9,10.6,27.5,23.9c2-0.6,3.9-1.4,5.6-2.3c3.4,2,7,2,9.2,1.7C82.6,58.8,82.8,58,82.3,57.7z"/>
		<path class="st0" d="M39.7,39.7c-13,0-23.5,9.4-23.5,20.9c0,4.4,1.6,8.7,4.4,12.2c-0.5,1-1.2,1.7-2.1,2.3
			c-0.9,0.6-1.4,1.7-1.1,2.8c0.2,1.1,1.1,1.9,2.2,2c0.7,0.1,1.5,0.2,2.3,0.2c2.3,0,4.3-0.5,6.2-1.3c3.5,1.8,7.6,2.8,11.7,2.8
			c13,0,23.5-9.4,23.5-20.9S52.7,39.7,39.7,39.7z M39.7,77.4c-3.8,0-7.5-1-10.7-2.8L28,74l-1,0.6c-1.1,0.6-2.2,1-3.5,1.2
			c0.6-0.8,1.1-1.7,1.4-2.7l0.4-1.2L24.5,71c-2.8-3-4.2-6.6-4.2-10.5c0-9.3,8.7-16.8,19.4-16.8s19.4,7.5,19.4,16.8
			S50.4,77.4,39.7,77.4z"/>
		<path class="st0" d="M40.4,56c1.4,0,2.6-1.2,2.6-2.6c0-1.5-1.1-2.6-2.6-2.6c-1.4,0-2.6,1.1-2.6,2.6C37.8,54.8,38.9,56,40.4,56z"/>
		<path class="st0" d="M43.5,67.8c-0.2,0.1-0.5,0.3-0.7,0.4c-0.3,0.1-0.6,0.2-1,0.3c-0.4,0-0.7-0.2-0.8-0.6
			c-0.1-0.3-0.1-0.6-0.1-0.9c0.1-0.6,0.2-1.2,0.3-1.9c0.3-1.9,0.7-3.7,1-5.6c0.1-0.5,0.2-1,0.2-1.5c0-0.6-0.4-0.9-1-0.9
			c-0.8,0-1.7,0-2.5,0c-0.8,0-1.6,0-2.4,0c-0.2,0-0.4,0-0.6,0c-0.4,0.1-0.6,0.2-0.6,0.5c0,0.3,0.1,0.5,0.5,0.7
			c0.3,0.1,0.6,0.1,0.9,0.2c0.7,0.1,0.9,0.3,0.9,1c0,0.1,0,0.2,0,0.3c-0.3,1.6-0.6,3.3-0.9,4.9c-0.2,0.9-0.3,1.9-0.4,2.8
			c-0.2,1.4,1.1,2.7,2.2,2.8c0.6,0.1,1.3,0.1,1.9,0.1c1.4,0,2.5-0.6,3.4-1.6c0.2-0.2,0.3-0.4,0.4-0.6C44.2,67.9,43.9,67.6,43.5,67.8
			z"/>
	</g>
</g>
</svg>
