<?xml version="1.0" encoding="utf-8"?>
<!-- Generator: Adobe Illustrator 21.0.0, SVG Export Plug-In . SVG Version: 6.00 Build 0)  -->
<svg version="1.1" id="Capa_1" xmlns="http://www.w3.org/2000/svg" xmlns:xlink="http://www.w3.org/1999/xlink" x="0px" y="0px"
	 viewBox="0 0 100 100" style="enable-background:new 0 0 100 100;" xml:space="preserve">
<style type="text/css">
	.st0{fill:#FCC746;}
</style>
<g>
	<g id="Layer_5_47_">
		<g>
			<path class="st0" d="M75,27.7c-1.4,0-2.6,0.8-3.1,1.9c-0.1,0.1-0.2,0.4-0.6,0.4h-16c-0.4,0-0.5-0.2-0.6-0.2
				c-0.9-1-2.2-1.6-3.6-1.6h0l-14.6,1.1c-0.4,0-0.5-0.2-0.5-0.3c-0.7-3.3-3.7-5.7-7.2-5.7c-4.1,0-7.4,3.3-7.4,7.4s3.3,7.4,7.4,7.4
				c0.1,0,46.1,0,46.2,0c2,0,3.5-1.6,3.5-3.5v-3.3C78.5,29.2,76.9,27.7,75,27.7z"/>
			<path class="st0" d="M79.1,42.2H20.8c-2,0-3.7,1.7-3.7,3.7v5c0,2,1.7,3.7,3.7,3.7c0,0,14.3,0,19.1,0c0.4,0,0.6,0.2,0.6,0.2
				l6.1,5.5c0,0,0.2,0.3,0,0.5c-2.3,2.1-8.7,7.9-8.7,7.9C37.5,69.1,37,69,36.8,69c-0.1,0-0.2,0-0.3,0c-2.1,0-3.8,1.7-3.8,3.8
				c0,2.1,1.7,3.8,3.8,3.8c2.1,0,3.8-1.7,3.8-3.8c0-0.2-0.1-0.5,0.3-0.9l9.1-8.2c0,0,0.3-0.3,0.6,0c2.4,2.2,9.1,8.2,9.1,8.2
				c0.3,0.3,0.3,0.7,0.3,0.9c0,2.1,1.7,3.8,3.8,3.8s3.8-1.7,3.8-3.8c0-2.1-1.7-3.8-3.8-3.8c-0.3,0-0.9,0.2-1.2-0.1l-8.9-8.1
				c0,0-0.3-0.2,0-0.5c1.6-1.4,6-5.5,6-5.5s0.3-0.3,0.7-0.3c4.7,0,19,0,19,0c2,0,3.7-1.7,3.7-3.7v-5C82.8,43.9,81.1,42.2,79.1,42.2z
				 M50,57.7c-0.1,0-0.2-0.1-0.2-0.1l-3-2.8c0,0-0.1-0.3,0.2-0.3c1.6,0,4.6,0,6,0c0.5,0,0.2,0.3,0.2,0.3l-3,2.7
				C50.2,57.6,50.1,57.7,50,57.7z"/>
		</g>
	</g>
</g>
</svg>
