<?xml version="1.0" encoding="utf-8"?>
<!-- Generator: Adobe Illustrator 21.0.0, SVG Export Plug-In . SVG Version: 6.00 Build 0)  -->
<svg version="1.1" id="Capa_1" xmlns="http://www.w3.org/2000/svg" xmlns:xlink="http://www.w3.org/1999/xlink" x="0px" y="0px"
	 viewBox="0 0 100 100" style="enable-background:new 0 0 100 100;" xml:space="preserve">
<style type="text/css">
	.st0{fill:#FCC746;}
</style>
<g>
	<g>
		<path class="st0" d="M23,65.3v10.1c0,0.6,0.5,1.1,1.1,1.1H32c0.6,0,1.1-0.5,1.1-1.1V57.6l-5.7,5.7C26.2,64.5,24.7,65.2,23,65.3z"
			/>
		<path class="st0" d="M37,57.5v17.9c0,0.6,0.5,1.1,1.1,1.1H46c0.6,0,1.1-0.5,1.1-1.1V64.9c-1.8,0-3.5-0.7-4.7-2L37,57.5z"/>
		<path class="st0" d="M51,63.8v11.7c0,0.6,0.5,1.1,1.1,1.1H60c0.6,0,1.1-0.5,1.1-1.1V53.9l-9,9C51.8,63.2,51.4,63.5,51,63.8z"/>
		<path class="st0" d="M74.3,40.7L65,50v25.4c0,0.6,0.5,1.1,1.1,1.1h7.8c0.6,0,1.1-0.5,1.1-1.1V41.4c-0.3-0.2-0.4-0.4-0.6-0.5
			L74.3,40.7z"/>
		<path class="st0" d="M80.7,24.1c-0.4-0.4-0.9-0.6-1.7-0.6c-0.1,0-0.1,0-0.2,0c-3.6,0.2-7.3,0.3-10.9,0.5c-0.5,0-1.2,0.1-1.7,0.6
			c-0.2,0.2-0.3,0.4-0.4,0.6c-0.5,1.2,0.2,1.9,0.6,2.3l0.9,0.9c0.6,0.6,1.3,1.3,1.9,1.9l-22,22l-9.9-9.9c-0.6-0.6-1.4-0.9-2.2-0.9
			c-0.8,0-1.6,0.3-2.2,0.9L19.7,55.6c-1.2,1.2-1.2,3.2,0,4.5l0.6,0.6c0.6,0.6,1.4,0.9,2.2,0.9c0.8,0,1.6-0.3,2.2-0.9l10.4-10.4
			l9.9,9.9c0.6,0.6,1.4,0.9,2.2,0.9c0.8,0,1.6-0.3,2.2-0.9l24.8-24.8l2.8,2.8c0.3,0.3,0.8,0.8,1.5,0.8c0.3,0,0.6-0.1,0.9-0.2
			c0.2-0.1,0.4-0.2,0.5-0.4c0.6-0.6,0.7-1.3,0.7-1.8c0.1-2.4,0.2-4.7,0.3-7.1l0.2-3.6C81.3,25.1,81.1,24.6,80.7,24.1z"/>
	</g>
</g>
</svg>
