<?xml version="1.0" encoding="utf-8"?>
<!-- Generator: Adobe Illustrator 21.0.0, SVG Export Plug-In . SVG Version: 6.00 Build 0)  -->
<svg version="1.1" id="Capa_1" xmlns="http://www.w3.org/2000/svg" xmlns:xlink="http://www.w3.org/1999/xlink" x="0px" y="0px"
	 viewBox="0 0 100 100" style="enable-background:new 0 0 100 100;" xml:space="preserve">
<style type="text/css">
	.st0{fill:#8B620B;}
	.st1{display:none;}
	.st2{display:inline;fill:#FCC746;}
	.st3{display:inline;}
	.st4{fill:#FCC746;}
	.st5{display:inline;fill:none;stroke:#FCC746;stroke-width:2;stroke-linecap:round;stroke-linejoin:round;stroke-miterlimit:10;}
</style>
<circle class="st0" cx="50.2" cy="50.8" r="40.2"/>
<g class="st1">
	<path class="st2" d="M72,40.6c-1.6-0.7-3.3-1.1-4.9-1.5c-3.3-0.8-6.8-0.7-10.1,0c-0.5,0.1-1,0.2-1.5,0.4c0.4,0.4,0.6,0.9,0.7,1.3
		c0.1,0.4,0.1,0.8,0.1,1.3c4.7-1.4,9.7-1,14.2,0.9c-4.2,2.5-9.7,2.4-14.2,0.5c0,0.5-0.1,1-0.1,1.5s-0.1,0.9-0.1,1.3
		c5.2,1.9,11.3,1.6,16.1-1.2c0,0.7,0,1.5-0.1,2.2c-4.9,2.7-10.9,3.1-16,0.8c0,1,0,1.9-0.1,2.9c5.2,1.9,11,1.7,16-0.7
		c0,0.9,0,1.7,0,2.6c-5.1,2.4-10.7,1.9-16,0.3c0,0.5,0,1,0,1.5c0.2,0,0.3-0.1,0.5-0.1c0.6-0.1,1.3-0.1,1.9-0.1c3,0,5.7,1,8.1,2.6
		c1.9-0.2,3.7-0.6,5.5-1.3c0,0.7,0,1.3,0,2c-1,0.6-2,1.2-3,1.6c0.6,0.7,1.2,1.4,1.6,2.2c0.5-0.2,0.9-0.4,1.4-0.7c0,0.9,0,1.9,0,2.8
		c0,0.1-0.1,0.2-0.2,0.3c0.3,0.8,0.6,1.7,0.7,2.6c0.6-0.3,1.1-0.7,1.6-1.1c0.3-0.2,0.4-0.5,0.5-0.8c0-0.1,0.1-0.3,0.1-0.4
		c0-5.6,0-11.2,0.1-16.8c0-1.4,0.4-3.2,0.1-4.6C74.8,41.9,72.8,41,72,40.6z"/>
	<path class="st2" d="M44.4,70.7C44.4,70.7,44.3,70.7,44.4,70.7C43.2,70.9,42.1,71,41,71c-0.3,0-0.5,0-0.8,0c-1.4,0-2.9-0.1-4.3-0.4
		c-1.2-0.3-2.4-0.6-3.5-1.1c-0.5-0.2-3.3-1.5-3.3-2c0-1.2,0-2.3,0-3.5c3.7,1.8,7.6,2.8,11.5,2.8c1.3,0,2.6-0.1,3.9-0.3
		c0.2-1.3,0.7-2.6,1.2-3.8c-1.7,0.5-3.5,0.7-5.3,0.7c-3.8,0-7.6-1.1-11.1-3c-0.1-0.1-0.2-0.1-0.4-0.2c0-1.1,0-2.2,0-3.3
		c4.2,1.4,8.5,2.4,12.8,2.4c2.3,0,4.7-0.3,7-0.9c0.7-0.6,1.4-1.2,2.2-1.7c1.1-0.7,2.4-1.3,3.7-1.6c0-0.7,0-1.4,0-2.1
		c0-0.8,0-1.6,0-2.3c0-1,0-2,0.1-3c0-0.2,0-0.5,0-0.7c0-0.3,0-0.6,0.1-1c0.1-0.9,0.2-1.9,0.2-2.9c0-0.1,0-0.3,0-0.4
		c0-0.5,0-1-0.1-1.5c-0.1-0.4-0.3-0.8-0.7-1.1c-0.8-0.8-2.2-1.4-2.8-1.7c-1.9-0.8-4-1.4-6.1-1.9c-2-0.5-4.1-0.7-6.1-0.7
		c-2.1,0-4.2,0.2-6.3,0.7c-2.3,0.5-4.7,1.5-6.8,2.7c-0.7,0.4-0.9,1-0.8,1.6c0,0.1,0,0.2,0,0.4c0.3,9,0.3,18,0.3,26.9
		c0,0.2,0,0.4,0.1,0.5c0,0.4,0.2,0.7,0.6,1c3.9,3.1,9.1,4.9,14.2,4.9c1.5,0,3-0.2,4.4-0.5c-0.3-0.8-0.5-1.7-0.6-2.6
		C44.5,71.1,44.4,70.9,44.4,70.7z M39.4,39.1c3.5,0,7,0.8,10.3,2.2c-2.7,1.6-5.8,2.4-9,2.4c-3.6,0-7.3-1-10.4-2.7
		C33.2,39.7,36.3,39.1,39.4,39.1z M28.9,44.1C32.4,46,36.4,47,40.4,47c3.7,0,7.3-0.9,10.5-2.6c0.3-0.2,0.6-0.3,0.8-0.5
		c0,0.9,0,1.9-0.1,2.8c-0.2,0.1-0.5,0.2-0.7,0.4c-3.2,1.7-6.8,2.5-10.3,2.5c-4,0-8-1.1-11.5-3.3c-0.1,0-0.1-0.1-0.2-0.1
		C28.9,45.5,28.9,44.8,28.9,44.1z M29,50.1C32.7,52,36.7,53,40.7,53c3.5,0,7.1-0.8,10.4-2.2c0.2-0.1,0.4-0.2,0.5-0.2
		c0,1.1,0,2.2,0,3.2c-0.2,0.1-0.3,0.1-0.5,0.2c-2.9,1.3-6,1.9-9.1,1.9c-4.4,0-8.8-1.1-13-2.6C29.1,52.2,29.1,51.2,29,50.1z"/>
	<path class="st2" d="M71.3,67.3c-0.1-0.4-0.2-0.8-0.3-1.2c-0.1-0.4-0.3-0.9-0.5-1.3c-0.4-0.9-0.8-1.8-1.4-2.6
		c-0.5-0.8-1.2-1.6-1.9-2.3c-1.1-1.1-2.4-2-3.8-2.7c-1.5-0.7-3.2-1.1-4.8-1.1c-0.6,0-1.2,0-1.8,0.1c-0.2,0-0.4,0.1-0.6,0.1
		c-0.1,0-0.2,0-0.3,0.1c-0.2,0-0.4,0.1-0.6,0.1c-0.2,0.1-0.4,0.1-0.6,0.2c-0.4,0.1-0.7,0.2-1,0.4c-0.8,0.3-1.6,0.8-2.3,1.3
		c-0.1,0.1-0.3,0.2-0.4,0.3c-0.1,0-0.1,0.1-0.2,0.1c-0.2,0.1-0.4,0.3-0.6,0.4c-0.1,0.1-0.2,0.2-0.3,0.3c-0.5,0.4-0.9,0.9-1.3,1.3
		c-0.2,0.3-0.5,0.6-0.7,0.9c-0.9,1.3-1.6,2.7-2,4.3c-0.1,0.2-0.1,0.4-0.2,0.6c0,0.2-0.1,0.4-0.1,0.6l0,0c-0.1,0.7-0.2,1.3-0.2,2
		c0,0.2,0,0.4,0,0.6s0,0.4,0,0.6c0,0.4,0.1,0.8,0.1,1.2c0.1,0.8,0.3,1.5,0.5,2.2c0.1,0.2,0.1,0.3,0.2,0.5c0.1,0.2,0.1,0.3,0.2,0.5
		c2,5,6.8,8.5,12.1,8.5c0.6,0,1.2,0,1.8-0.1c3-0.4,7-2.9,8.8-5.4c2-2.8,2.8-6.3,2.1-10C71.4,67.6,71.4,67.5,71.3,67.3z M49.2,65.6
		c0.1-0.2,0.2-0.5,0.3-0.7c0.4-0.9,1-1.7,1.7-2.5c1-1.2,2.3-2.1,3.7-2.7c0.2-0.1,0.4-0.1,0.6-0.2c0.2-0.1,0.4-0.1,0.5-0.2
		c0.1,0,0.3-0.1,0.4-0.1c0.1,0,0.3-0.1,0.4-0.1c0.6-0.1,1.2-0.2,1.8-0.2c1.9,0,3.6,0.6,5.1,1.6c1,0.7,1.8,1.5,2.6,2.4
		c0.7,0.9,1.3,1.9,1.7,2.9c0.3,0.8,0.6,1.6,0.8,2.5v0.1c0.5,2.9,0,5.6-1.6,7.7c-1.4,1.9-4.7,3.9-7,4.3c-0.5,0.1-0.9,0.1-1.4,0.1
		c-4.2,0-7.9-2.7-9.6-6.7c-0.1-0.2-0.1-0.3-0.2-0.5c-0.1-0.2-0.1-0.3-0.2-0.5c-0.2-0.5-0.3-1.1-0.4-1.6c-0.1-0.6-0.1-1.2-0.1-1.8
		c0-0.2,0-0.4,0-0.6s0-0.4,0.1-0.6c0.1-0.6,0.2-1.2,0.4-1.8C49,66.1,49.1,65.9,49.2,65.6z"/>
	<g class="st3">
		<path class="st4" d="M52.4,64.4c0.7-0.1,1.7-0.2,2.8-0.2c1.4,0,2.3,0.2,3,0.7c0.5,0.4,0.8,1.1,0.8,1.9c0,1.2-0.8,2-1.6,2.3l0,0
			c0.6,0.3,1,0.9,1.2,1.7c0.3,1,0.6,2.2,0.8,2.6h-2.1c-0.1-0.3-0.4-1-0.6-2.1c-0.2-1.1-0.6-1.5-1.5-1.5h-0.6v3.6h-2.1v-9H52.4z
			 M54.4,68.4h0.8c1,0,1.6-0.5,1.6-1.3s-0.6-1.3-1.5-1.3c-0.5,0-0.8,0-0.9,0.1C54.4,65.9,54.4,68.4,54.4,68.4z"/>
		<path class="st4" d="M59.9,69c0-0.9,0-1.6-0.1-2.2h1.8l0.1,0.9l0,0c0.5-0.7,1.3-1.1,2.2-1.1c1.5,0,2.8,1.3,2.8,3.4
			c0,2.4-1.5,3.6-3,3.6c-0.8,0-1.4-0.3-1.7-0.8l0,0v3.3h-2.1C59.9,76.1,59.9,69,59.9,69z M62,70.6c0,0.2,0,0.3,0,0.4
			c0.1,0.6,0.6,1,1.2,1c0.9,0,1.4-0.7,1.4-1.9c0-1.1-0.5-1.9-1.4-1.9c-0.6,0-1.1,0.4-1.2,1c0,0.1,0,0.2,0,0.4
			C62,69.6,62,70.6,62,70.6z"/>
	</g>
</g>
<g class="st1">
	<polyline class="st5" points="27.3,33.7 36.8,27.4 53.6,34.8 70.9,23.6 62.9,21.7 	"/>
	<line class="st5" x1="69.7" y1="31.8" x2="70.9" y2="23.6"/>
</g>
<g>
	<g>
		<path class="st4" d="M51.5,59c0.7,0,1.2-0.5,1.2-1.2v-0.6c0-0.7-0.5-1.2-1.2-1.2h-20c-0.7,0-1.2,0.5-1.2,1.2v0.6
			c0,0.7,0.5,1.2,1.2,1.2H51.5z"/>
		<path class="st4" d="M64.1,34.3c-1.9-1.9-4.1-3.4-6.5-4.4l0,0c-0.8-0.3-1.7,0-2.2,0.7L54,32.8c-0.3-0.1-0.7-0.2-1.1-0.2
			c-0.1,0-0.2,0-0.4,0c-0.3,0-0.6,0-0.9,0.1l2.5-3.8l0.8-1.2c0.5-0.8,0.3-1.9-0.5-2.5l-6.6-4.2c-0.3-0.2-0.6-0.3-1-0.3
			c-0.6,0-1.2,0.3-1.5,0.8L33.8,39.2c-0.5,0.8-0.3,1.9,0.5,2.5l1.2,0.8l-0.6,0.9l-0.6,0.9l-0.4,0.6c-0.5,0.8-0.3,1.9,0.5,2.5
			l1.1,0.7c0.8,0.5,1.9,0.3,2.5-0.5l0.4-0.6l0.6-0.9l0.6-0.9l1.2,0.8c0.3,0.2,0.6,0.3,1,0.3c0.6,0,1.2-0.3,1.5-0.8l4.7-7.3
			c0.1,0.4,0.3,0.8,0.5,1.2c0.2,0.3,0.4,0.6,0.7,0.9c0.9,0.9,2.1,1.5,3.5,1.4c2.4-0.1,4.4-2,4.4-4.4c0-0.6-0.1-1.2-0.3-1.7
			c1.3,0.7,2.4,1.6,3.5,2.6c2.9,2.9,4.4,6.6,4.4,10.7c0,4-1.6,7.8-4.4,10.7c-1.8,1.8-3.9,3.1-6.2,3.8c-0.2,0.1-0.4,0.1-0.5,0.1h-5.9
			c-1,0-1.8-0.8-1.8-1.8v-0.4h-8.6v2.2v2.8v3.1c0.2,0,0.4,0,0.6,0h11.8h2.2H62h1.4h0.1c2.1-0.4,3.6-2.2,3.6-4.3
			c0-1.3-0.6-2.5-1.5-3.3c1.2-1.5,2.1-3,2.8-4.8c1.1-2.5,1.6-5.2,1.6-8c0-2.8-0.5-5.5-1.6-8C67.5,38.4,66,36.2,64.1,34.3z
			 M52.5,38.7c-0.8,0-1.4-0.5-1.6-1.2c0-0.1-0.1-0.3-0.1-0.4c0-0.8,0.6-1.5,1.4-1.6c0.1,0,0.2,0,0.3,0c0.9,0,1.6,0.7,1.6,1.6
			C54.2,38,53.5,38.7,52.5,38.7z M63.5,66.3c-0.2,0.1-0.4,0.1-0.6,0.1c-0.6,0-1.1-0.3-1.4-0.9c-0.1-0.2-0.2-0.4-0.2-0.7
			c0-0.8,0.7-1.5,1.5-1.5c0.2,0,0.4,0,0.6,0.1c0.1,0,0.2,0.1,0.3,0.2c0.4,0.3,0.6,0.7,0.6,1.2C64.4,65.5,64,66,63.5,66.3z"/>
		<path class="st4" d="M37.2,71.3c-3.9,0.3-7,3.6-7,7.6h31.4c1,0,1.8-0.8,1.8-1.8v-2.9v-2.9H37.8C37.6,71.3,37.4,71.3,37.2,71.3z"/>
	</g>
</g>
</svg>
